{
  "project_info": {
    "project_number": "810738373625",
    "firebase_url": "https://smartgoals-a5d61.firebaseio.com",
    "project_id": "smartgoals-a5d61",
    "storage_bucket": "smartgoals-a5d61.appspot.com"
  },
  "client": [
    {
      "client_info": {
        "mobilesdk_app_id": "1:810738373625:android:66fdd9245059f190c42328",
        "android_client_info": {
          "package_name": "com.flowtech.smartgoals"
        }
      },
      "oauth_client": [
        {
          "client_id": "810738373625-vj4nlg2lhm837jmrimon0sflfhph6vsc.apps.googleusercontent.com",
          "client_type": 3
        }
      ],
      "api_key": [
        {
          "current_key": "AIzaSyCyvBjSA3PnDwHzS5_uZictjnqvY8MsBsE"
        }
      ],
      "services": {
        "appinvite_service": {
          "other_platform_oauth_client": [
            {
              "client_id": "810738373625-vj4nlg2lhm837jmrimon0sflfhph6vsc.apps.googleusercontent.com",
              "client_type": 3
            }
          ]
        }
      }
    }
  ],
  "configuration_version": "1"
}